/Users/owner/Documents/NagasivaB/projects/abn_amro_webautomation/src/test/java/stepDefinitions/OpenMyAccountSteps.java
/Users/owner/Documents/NagasivaB/projects/abn_amro_webautomation/src/test/java/testRunner/TestRunner.java
/Users/owner/Documents/NagasivaB/projects/abn_amro_webautomation/src/test/java/pageObjects/Confirmation.java
/Users/owner/Documents/NagasivaB/projects/abn_amro_webautomation/src/test/java/pageObjects/ClosingQuestions.java
/Users/owner/Documents/NagasivaB/projects/abn_amro_webautomation/src/test/java/pageObjects/YourDetails.java
/Users/owner/Documents/NagasivaB/projects/abn_amro_webautomation/src/test/java/pageObjects/Identification.java
/Users/owner/Documents/NagasivaB/projects/abn_amro_webautomation/src/test/java/pageObjects/ChooseBankAccount.java
/Users/owner/Documents/NagasivaB/projects/abn_amro_webautomation/src/test/java/pageObjects/ThankYouPage.java
